Untitled
…
We need to unnest that.

First of all, let us make that sentence dataframe a bit more easy to handle. It will also bring us one step closer to normalising the entire dataset.

sentences %>% 
  head() %>% 
  unnest_longer(tokens) %>% 
  unnest_wider(tokens) 

# A tibble: 11,137 × 11
   book   volume chapter sentences doc_id sentence_id token_id token lemma pos  
   <fct>   <dbl>   <dbl> <chr>     <chr>        <int>    <int> <chr> <chr> <chr>
 1 Sense…      1       1 "The fam… text1            1        1 The   the   DET  
 2 Sense…      1       1 "The fam… text1            1        2 fami… fami… NOUN 
 3 Sense…      1       1 "The fam… text1            1        3 of    of    ADP  
 4 Sense…      1       1 "The fam… text1            1        4 Dash… Dash… PROPN
 5 Sense…      1       1 "The fam… text1            1        5 had   have  AUX  
 6 Sense…      1       1 "The fam… text1            1        6 long  long  ADV  
 7 Sense…      1       1 "The fam… text1            1        7 been  be    AUX  
 8 Sense…      1       1 "The fam… text1            1        8 sett… sett… VERB 
 9 Sense…      1       1 "The fam… text1            1        9 in    in    ADP  
10 Sense…      1       1 "The fam… text1            1       10 Suss… Suss… PROPN
# ℹ 11,127 more rows
# ℹ 1 more variable: entity <chr>
…
TIME_I
Inside a Time expression

WORK_OF_ART_B
Beginning of a Work of Art

WORK_OF_ART_I
Inside a Work of Art

Nice. Which products are mentioned?

tokens %>% 
  filter(str_starts(entity, "PRODUCT"))

# A tibble: 61 × 9
   book             volume chapter sentence_id token_id token lemma pos   entity
   <fct>             <dbl>   <dbl>       <int>    <int> <chr> <chr> <chr> <chr> 
 1 Sense & Sensibi…      1      18          58        9 Care… Care… PROPN PRODU…
 2 Sense & Sensibi…      1      21           3        7 Exet… Exet… PROPN PRODU…
 3 Sense & Sensibi…      1      21           3       52 Exet… Exet… PROPN PRODU…
 4 Sense & Sensibi…      1      21          69       12 Exet… Exet… PROPN PRODU…
 5 Sense & Sensibi…      1      21          86        4 Exet… Exet… PROPN PRODU…
 6 Sense & Sensibi…      1      24          81       31 Exet… Exet… PROPN PRODU…
 7 Sense & Sensibi…      1      26          38       92 Cart… cart… NOUN  PRODU…
 8 Sense & Sensibi…      1      47          66       13 Exet… Exet… PROPN PRODU…
 9 Sense & Sensibi…      1      49          99      101 Exet… Exet… PROPN PRODU…
10 Pride & Prejudi…      1       8          34       13 Chea… Chea… PROPN PRODU…
# ℹ 51 more rows
…
Hvornår dukker karaktererne op?

det er vist noget i retning af hvor mange sætninger optræder en karakter i - som andel af antal sætninger pr kapitel.

karakter netværk

Hm…

lokationer

named_entities %>% 
  filter(entity == "WORK_OF_ART")

# A tibble: 162 × 7
# Groups:   book, volume, chapter, sentence_id, entity [162]
   book                volume chapter sentence_id entity      entitet entiteten 
   <fct>                <dbl>   <dbl>       <int> <chr>         <int> <chr>     
 1 Sense & Sensibility      1       5          34 WORK_OF_ART       2 Dear      
 2 Sense & Sensibility      1      13         109 WORK_OF_ART       2 Yes , Mar…
 3 Sense & Sensibility      1      14          33 WORK_OF_ART       4 Improve   
 4 Sense & Sensibility      1      16          35 WORK_OF_ART       2 Months    
 5 Sense & Sensibility      1      18          69 WORK_OF_ART       2 Shall I t…
 6 Sense & Sensibility      1      22          98 WORK_OF_ART       2 Pardon me 
 7 Sense & Sensibility      1      23          56 WORK_OF_ART      24 Your Lady…
 8 Sense & Sensibility      1      23          65 WORK_OF_ART      17 Dear litt…
 9 Sense & Sensibility      1      30          67 WORK_OF_ART       2 Dear ma'am
10 Sense & Sensibility      1      30         130 WORK_OF_ART       2 Dear Ma'am
# ℹ 152 more rows
…
